{"start":{"y":8,"x":4},
"levelName": "tutorial 2",
"message": "Use keys to open colored doors",
"baseTime":"0","width":10,"height":10,"warps":[],
"tiles":[{"x":0,"depth":-1,"y":0,"item":-1,"top":false,"bottom":false,"doorRight":0,"right":false,"left":false,"doorLeft":0,"exit":false,"doorTop":0,"index":0,"doorBottom":0,"itemParameters":null},{"x":1,"depth":-1,"y":0,"item":-1,"top":false,"bottom":false,"doorRight":0,"right":false,"left":false,"doorLeft":0,"exit":false,"doorTop":0,"index":1,"doorBottom":0,"itemParameters":null},{"x":2,"depth":-1,"y":0,"item":-1,"top":false,"bottom":false,"doorRight":0,"right":false,"left":false,"doorLeft":0,"exit":false,"doorTop":0,"index":2,"doorBottom":0,"itemParameters":null},{"x":3,"depth":-1,"y":0,"item":-1,"top":false,"bottom":false,"doorRight":0,"right":false,"left":false,"doorLeft":0,"exit":false,"doorTop":0,"index":3,"doorBottom":0,"itemParameters":null},{"x":4,"depth":-1,"y":0,"item":-1,"top":false,"bottom":false,"doorRight":0,"right":false,"left":false,"doorLeft":0,"exit":false,"doorTop":0,"index":4,"doorBottom":0,"itemParameters":null},{"x":5,"depth":-1,"y":0,"item":-1,"top":false,"bottom":false,"doorRight":0,"right":false,"left":false,"doorLeft":0,"exit":false,"doorTop":0,"index":5,"doorBottom":0,"itemParameters":null},{"x":6,"depth":-1,"y":0,"item":-1,"top":false,"bottom":false,"doorRight":0,"right":false,"left":false,"doorLeft":0,"exit":false,"doorTop":0,"index":6,"doorBottom":0,"itemParameters":null},{"x":7,"depth":-1,"y":0,"item":-1,"top":false,"bottom":false,"doorRight":0,"right":false,"left":false,"doorLeft":0,"exit":false,"doorTop":0,"index":7,"doorBottom":0,"itemParameters":null},{"x":8,"depth":-1,"y":0,"item":-1,"top":false,"bottom":false,"doorRight":0,"right":false,"left":false,"doorLeft":0,"exit":false,"doorTop":0,"index":8,"doorBottom":0,"itemParameters":null},{"x":9,"depth":-1,"y":0,"item":-1,"top":false,"bottom":false,"doorRight":0,"right":false,"left":false,"doorLeft":0,"exit":false,"doorTop":0,"index":9,"doorBottom":0,"itemParameters":null},{"x":0,"depth":-1,"y":1,"item":-1,"top":false,"bottom":false,"doorRight":0,"right":false,"left":false,"doorLeft":0,"exit":false,"doorTop":0,"index":10,"doorBottom":0,"itemParameters":null},{"x":1,"depth":-1,"y":1,"item":-1,"top":false,"bottom":false,"doorRight":0,"right":false,"left":false,"doorLeft":0,"exit":false,"doorTop":0,"index":11,"doorBottom":0,"itemParameters":null},{"x":2,"depth":-1,"y":1,"item":-1,"top":false,"bottom":false,"doorRight":0,"right":false,"left":false,"doorLeft":0,"exit":false,"doorTop":0,"index":12,"doorBottom":0,"itemParameters":null},{"x":3,"depth":-1,"y":1,"item":-1,"top":false,"bottom":false,"doorRight":0,"right":false,"left":false,"doorLeft":0,"exit":false,"doorTop":0,"index":13,"doorBottom":0,"itemParameters":null},{"x":4,"depth":-1,"y":1,"item":-1,"top":false,"bottom":false,"doorRight":0,"right":false,"left":false,"doorLeft":0,"exit":false,"doorTop":0,"index":14,"doorBottom":0,"itemParameters":null},{"x":5,"depth":-1,"y":1,"item":-1,"top":false,"bottom":false,"doorRight":0,"right":false,"left":false,"doorLeft":0,"exit":false,"doorTop":0,"index":15,"doorBottom":0,"itemParameters":null},{"x":6,"depth":-1,"y":1,"item":-1,"top":false,"bottom":false,"doorRight":0,"right":false,"left":false,"doorLeft":0,"exit":false,"doorTop":0,"index":16,"doorBottom":0,"itemParameters":null},{"x":7,"depth":-1,"y":1,"item":-1,"top":false,"bottom":false,"doorRight":0,"right":false,"left":false,"doorLeft":0,"exit":false,"doorTop":0,"index":17,"doorBottom":0,"itemParameters":null},{"x":8,"depth":-1,"y":1,"item":-1,"top":false,"bottom":false,"doorRight":0,"right":false,"left":false,"doorLeft":0,"exit":false,"doorTop":0,"index":18,"doorBottom":0,"itemParameters":null},{"x":9,"depth":-1,"y":1,"item":-1,"top":false,"bottom":false,"doorRight":0,"right":false,"left":false,"doorLeft":0,"exit":false,"doorTop":0,"index":19,"doorBottom":0,"itemParameters":null},{"x":0,"depth":-1,"y":2,"item":-1,"top":false,"bottom":false,"doorRight":0,"right":false,"left":false,"doorLeft":0,"exit":false,"doorTop":0,"index":20,"doorBottom":0,"itemParameters":null},{"x":1,"depth":-1,"y":2,"item":-1,"top":false,"bottom":false,"doorRight":0,"right":false,"left":false,"doorLeft":0,"exit":false,"doorTop":0,"index":21,"doorBottom":0,"itemParameters":null},{"x":2,"depth":-1,"y":2,"item":-1,"top":false,"bottom":false,"doorRight":0,"right":false,"left":false,"doorLeft":0,"exit":false,"doorTop":0,"index":22,"doorBottom":0,"itemParameters":null},{"x":3,"depth":-1,"y":2,"item":-1,"top":false,"bottom":false,"doorRight":0,"right":false,"left":false,"doorLeft":0,"exit":false,"doorTop":0,"index":23,"doorBottom":0,"itemParameters":null},{"x":4,"depth":-1,"y":2,"item":-1,"top":false,"bottom":false,"doorRight":0,"right":false,"left":false,"doorLeft":0,"exit":false,"doorTop":0,"index":24,"doorBottom":0,"itemParameters":null},{"x":5,"depth":-1,"y":2,"item":-1,"top":true,"bottom":false,"doorRight":0,"right":true,"left":true,"doorLeft":0,"exit":true,"doorTop":0,"index":25,"doorBottom":0,"itemParameters":null},{"x":6,"depth":-1,"y":2,"item":-1,"top":false,"bottom":false,"doorRight":0,"right":false,"left":false,"doorLeft":0,"exit":false,"doorTop":0,"index":26,"doorBottom":0,"itemParameters":null},{"x":7,"depth":-1,"y":2,"item":-1,"top":false,"bottom":false,"doorRight":0,"right":false,"left":false,"doorLeft":0,"exit":false,"doorTop":0,"index":27,"doorBottom":0,"itemParameters":null},{"x":8,"depth":-1,"y":2,"item":-1,"top":false,"bottom":false,"doorRight":0,"right":false,"left":false,"doorLeft":0,"exit":false,"doorTop":0,"index":28,"doorBottom":0,"itemParameters":null},{"x":9,"depth":-1,"y":2,"item":-1,"top":false,"bottom":false,"doorRight":0,"right":false,"left":false,"doorLeft":0,"exit":false,"doorTop":0,"index":29,"doorBottom":0,"itemParameters":null},{"x":0,"depth":-1,"y":3,"item":-1,"top":false,"bottom":false,"doorRight":0,"right":false,"left":false,"doorLeft":0,"exit":false,"doorTop":0,"index":30,"doorBottom":0,"itemParameters":null},{"x":1,"depth":-1,"y":3,"item":-1,"top":false,"bottom":false,"doorRight":0,"right":false,"left":false,"doorLeft":0,"exit":false,"doorTop":0,"index":31,"doorBottom":0,"itemParameters":null},{"x":2,"depth":-1,"y":3,"item":-1,"top":true,"bottom":false,"doorRight":0,"right":false,"left":true,"doorLeft":0,"exit":false,"doorTop":0,"index":32,"doorBottom":0,"itemParameters":null},{"x":3,"depth":-1,"y":3,"item":-1,"top":true,"bottom":false,"doorRight":0,"right":false,"left":false,"doorLeft":0,"exit":false,"doorTop":0,"index":33,"doorBottom":0,"itemParameters":null},{"x":4,"depth":-1,"y":3,"item":-1,"top":true,"bottom":false,"doorRight":0,"right":false,"left":false,"doorLeft":0,"exit":false,"doorTop":0,"index":34,"doorBottom":0,"itemParameters":null},{"x":5,"depth":-1,"y":3,"item":-1,"top":false,"bottom":true,"doorRight":0,"right":true,"left":false,"doorLeft":0,"exit":false,"doorTop":0,"index":35,"doorBottom":0,"itemParameters":null},{"x":6,"depth":-1,"y":3,"item":-1,"top":false,"bottom":false,"doorRight":0,"right":false,"left":false,"doorLeft":0,"exit":false,"doorTop":0,"index":36,"doorBottom":0,"itemParameters":null},{"x":7,"depth":-1,"y":3,"item":-1,"top":false,"bottom":false,"doorRight":0,"right":false,"left":false,"doorLeft":0,"exit":false,"doorTop":0,"index":37,"doorBottom":0,"itemParameters":null},{"x":8,"depth":-1,"y":3,"item":-1,"top":false,"bottom":false,"doorRight":0,"right":false,"left":false,"doorLeft":0,"exit":false,"doorTop":0,"index":38,"doorBottom":0,"itemParameters":null},{"x":9,"depth":-1,"y":3,"item":-1,"top":false,"bottom":false,"doorRight":0,"right":false,"left":false,"doorLeft":0,"exit":false,"doorTop":0,"index":39,"doorBottom":0,"itemParameters":null},{"x":0,"depth":-1,"y":4,"item":-1,"top":false,"bottom":false,"doorRight":0,"right":false,"left":false,"doorLeft":0,"exit":false,"doorTop":0,"index":40,"doorBottom":0,"itemParameters":null},{"x":1,"depth":-1,"y":4,"item":4,"top":true,"bottom":true,"doorRight":0,"right":false,"left":true,"doorLeft":0,"exit":false,"doorTop":0,"index":41,"doorBottom":0,"itemParameters":{"color":16711680}},{"x":2,"depth":-1,"y":4,"item":-1,"top":true,"bottom":true,"doorRight":0,"right":false,"left":false,"doorLeft":0,"exit":false,"doorTop":16711680,"index":42,"doorBottom":0,"itemParameters":null},{"x":3,"depth":-1,"y":4,"item":-1,"top":true,"bottom":true,"doorRight":0,"right":false,"left":false,"doorLeft":0,"exit":false,"doorTop":0,"index":43,"doorBottom":0,"itemParameters":null},{"x":4,"depth":-1,"y":4,"item":3,"top":true,"bottom":false,"doorRight":0,"right":true,"left":false,"doorLeft":0,"exit":false,"doorTop":0,"index":44,"doorBottom":0,"itemParameters":null},{"x":5,"depth":-1,"y":4,"item":-1,"top":false,"bottom":false,"doorRight":0,"right":false,"left":false,"doorLeft":0,"exit":false,"doorTop":0,"index":45,"doorBottom":0,"itemParameters":null},{"x":6,"depth":-1,"y":4,"item":-1,"top":false,"bottom":false,"doorRight":0,"right":false,"left":false,"doorLeft":0,"exit":false,"doorTop":0,"index":46,"doorBottom":0,"itemParameters":null},{"x":7,"depth":-1,"y":4,"item":-1,"top":false,"bottom":false,"doorRight":0,"right":false,"left":false,"doorLeft":0,"exit":false,"doorTop":0,"index":47,"doorBottom":0,"itemParameters":null},{"x":8,"depth":-1,"y":4,"item":-1,"top":false,"bottom":false,"doorRight":0,"right":false,"left":false,"doorLeft":0,"exit":false,"doorTop":0,"index":48,"doorBottom":0,"itemParameters":null},{"x":9,"depth":-1,"y":4,"item":-1,"top":false,"bottom":false,"doorRight":0,"right":false,"left":false,"doorLeft":0,"exit":false,"doorTop":0,"index":49,"doorBottom":0,"itemParameters":null},{"x":0,"depth":-1,"y":5,"item":-1,"top":false,"bottom":false,"doorRight":0,"right":false,"left":false,"doorLeft":0,"exit":false,"doorTop":0,"index":50,"doorBottom":0,"itemParameters":null},{"x":1,"depth":-1,"y":5,"item":-1,"top":false,"bottom":false,"doorRight":0,"right":false,"left":false,"doorLeft":0,"exit":false,"doorTop":0,"index":51,"doorBottom":0,"itemParameters":null},{"x":2,"depth":-1,"y":5,"item":-1,"top":false,"bottom":false,"doorRight":0,"right":false,"left":false,"doorLeft":0,"exit":false,"doorTop":0,"index":52,"doorBottom":0,"itemParameters":null},{"x":3,"depth":-1,"y":5,"item":-1,"top":false,"bottom":false,"doorRight":0,"right":false,"left":false,"doorLeft":0,"exit":false,"doorTop":0,"index":53,"doorBottom":0,"itemParameters":null},{"x":4,"depth":-1,"y":5,"item":-1,"top":false,"bottom":false,"doorRight":0,"right":true,"left":true,"doorLeft":0,"exit":false,"doorTop":0,"index":54,"doorBottom":0,"itemParameters":null},{"x":5,"depth":-1,"y":5,"item":-1,"top":false,"bottom":false,"doorRight":0,"right":false,"left":false,"doorLeft":0,"exit":false,"doorTop":0,"index":55,"doorBottom":0,"itemParameters":null},{"x":6,"depth":-1,"y":5,"item":-1,"top":false,"bottom":false,"doorRight":0,"right":false,"left":false,"doorLeft":0,"exit":false,"doorTop":0,"index":56,"doorBottom":0,"itemParameters":null},{"x":7,"depth":-1,"y":5,"item":-1,"top":false,"bottom":false,"doorRight":0,"right":false,"left":false,"doorLeft":0,"exit":false,"doorTop":0,"index":57,"doorBottom":0,"itemParameters":null},{"x":8,"depth":-1,"y":5,"item":-1,"top":false,"bottom":false,"doorRight":0,"right":false,"left":false,"doorLeft":0,"exit":false,"doorTop":0,"index":58,"doorBottom":0,"itemParameters":null},{"x":9,"depth":-1,"y":5,"item":-1,"top":false,"bottom":false,"doorRight":0,"right":false,"left":false,"doorLeft":0,"exit":false,"doorTop":0,"index":59,"doorBottom":0,"itemParameters":null},{"x":0,"depth":-1,"y":6,"item":-1,"top":false,"bottom":false,"doorRight":0,"right":false,"left":false,"doorLeft":0,"exit":false,"doorTop":0,"index":60,"doorBottom":0,"itemParameters":null},{"x":1,"depth":-1,"y":6,"item":-1,"top":false,"bottom":false,"doorRight":0,"right":false,"left":false,"doorLeft":0,"exit":false,"doorTop":0,"index":61,"doorBottom":0,"itemParameters":null},{"x":2,"depth":-1,"y":6,"item":-1,"top":false,"bottom":false,"doorRight":0,"right":false,"left":false,"doorLeft":0,"exit":false,"doorTop":0,"index":62,"doorBottom":0,"itemParameters":null},{"x":3,"depth":-1,"y":6,"item":-1,"top":false,"bottom":false,"doorRight":0,"right":false,"left":false,"doorLeft":0,"exit":false,"doorTop":0,"index":63,"doorBottom":0,"itemParameters":null},{"x":4,"depth":-1,"y":6,"item":-1,"top":false,"bottom":false,"doorRight":0,"right":true,"left":true,"doorLeft":0,"exit":false,"doorTop":0,"index":64,"doorBottom":0,"itemParameters":null},{"x":5,"depth":-1,"y":6,"item":-1,"top":false,"bottom":false,"doorRight":0,"right":false,"left":false,"doorLeft":0,"exit":false,"doorTop":0,"index":65,"doorBottom":0,"itemParameters":null},{"x":6,"depth":-1,"y":6,"item":-1,"top":false,"bottom":false,"doorRight":0,"right":false,"left":false,"doorLeft":0,"exit":false,"doorTop":0,"index":66,"doorBottom":0,"itemParameters":null},{"x":7,"depth":-1,"y":6,"item":-1,"top":false,"bottom":false,"doorRight":0,"right":false,"left":false,"doorLeft":0,"exit":false,"doorTop":0,"index":67,"doorBottom":0,"itemParameters":null},{"x":8,"depth":-1,"y":6,"item":-1,"top":false,"bottom":false,"doorRight":0,"right":false,"left":false,"doorLeft":0,"exit":false,"doorTop":0,"index":68,"doorBottom":0,"itemParameters":null},{"x":9,"depth":-1,"y":6,"item":-1,"top":false,"bottom":false,"doorRight":0,"right":false,"left":false,"doorLeft":0,"exit":false,"doorTop":0,"index":69,"doorBottom":0,"itemParameters":null},{"x":0,"depth":-1,"y":7,"item":-1,"top":false,"bottom":false,"doorRight":0,"right":false,"left":false,"doorLeft":0,"exit":false,"doorTop":0,"index":70,"doorBottom":0,"itemParameters":null},{"x":1,"depth":-1,"y":7,"item":-1,"top":false,"bottom":false,"doorRight":0,"right":false,"left":false,"doorLeft":0,"exit":false,"doorTop":0,"index":71,"doorBottom":0,"itemParameters":null},{"x":2,"depth":-1,"y":7,"item":-1,"top":false,"bottom":false,"doorRight":0,"right":false,"left":false,"doorLeft":0,"exit":false,"doorTop":0,"index":72,"doorBottom":0,"itemParameters":null},{"x":3,"depth":-1,"y":7,"item":-1,"top":false,"bottom":false,"doorRight":0,"right":false,"left":false,"doorLeft":0,"exit":false,"doorTop":0,"index":73,"doorBottom":0,"itemParameters":null},{"x":4,"depth":-1,"y":7,"item":-1,"top":false,"bottom":false,"doorRight":0,"right":true,"left":true,"doorLeft":0,"exit":false,"doorTop":0,"index":74,"doorBottom":0,"itemParameters":null},{"x":5,"depth":-1,"y":7,"item":-1,"top":false,"bottom":false,"doorRight":0,"right":false,"left":false,"doorLeft":0,"exit":false,"doorTop":0,"index":75,"doorBottom":0,"itemParameters":null},{"x":6,"depth":-1,"y":7,"item":-1,"top":false,"bottom":false,"doorRight":0,"right":false,"left":false,"doorLeft":0,"exit":false,"doorTop":0,"index":76,"doorBottom":0,"itemParameters":null},{"x":7,"depth":-1,"y":7,"item":-1,"top":false,"bottom":false,"doorRight":0,"right":false,"left":false,"doorLeft":0,"exit":false,"doorTop":0,"index":77,"doorBottom":0,"itemParameters":null},{"x":8,"depth":-1,"y":7,"item":-1,"top":false,"bottom":false,"doorRight":0,"right":false,"left":false,"doorLeft":0,"exit":false,"doorTop":0,"index":78,"doorBottom":0,"itemParameters":null},{"x":9,"depth":-1,"y":7,"item":-1,"top":false,"bottom":false,"doorRight":0,"right":false,"left":false,"doorLeft":0,"exit":false,"doorTop":0,"index":79,"doorBottom":0,"itemParameters":null},{"x":0,"depth":-1,"y":8,"item":-1,"top":false,"bottom":false,"doorRight":0,"right":false,"left":false,"doorLeft":0,"exit":false,"doorTop":0,"index":80,"doorBottom":0,"itemParameters":null},{"x":1,"depth":-1,"y":8,"item":-1,"top":false,"bottom":false,"doorRight":0,"right":false,"left":false,"doorLeft":0,"exit":false,"doorTop":0,"index":81,"doorBottom":0,"itemParameters":null},{"x":2,"depth":-1,"y":8,"item":-1,"top":false,"bottom":false,"doorRight":0,"right":false,"left":false,"doorLeft":0,"exit":false,"doorTop":0,"index":82,"doorBottom":0,"itemParameters":null},{"x":3,"depth":-1,"y":8,"item":-1,"top":false,"bottom":false,"doorRight":0,"right":false,"left":false,"doorLeft":0,"exit":false,"doorTop":0,"index":83,"doorBottom":0,"itemParameters":null},{"x":4,"depth":-1,"y":8,"item":-1,"top":false,"bottom":true,"doorRight":0,"right":true,"left":true,"doorLeft":0,"exit":false,"doorTop":0,"index":84,"doorBottom":0,"itemParameters":null},{"x":5,"depth":-1,"y":8,"item":-1,"top":false,"bottom":false,"doorRight":0,"right":false,"left":false,"doorLeft":0,"exit":false,"doorTop":0,"index":85,"doorBottom":0,"itemParameters":null},{"x":6,"depth":-1,"y":8,"item":-1,"top":false,"bottom":false,"doorRight":0,"right":false,"left":false,"doorLeft":0,"exit":false,"doorTop":0,"index":86,"doorBottom":0,"itemParameters":null},{"x":7,"depth":-1,"y":8,"item":-1,"top":false,"bottom":false,"doorRight":0,"right":false,"left":false,"doorLeft":0,"exit":false,"doorTop":0,"index":87,"doorBottom":0,"itemParameters":null},{"x":8,"depth":-1,"y":8,"item":-1,"top":false,"bottom":false,"doorRight":0,"right":false,"left":false,"doorLeft":0,"exit":false,"doorTop":0,"index":88,"doorBottom":0,"itemParameters":null},{"x":9,"depth":-1,"y":8,"item":-1,"top":false,"bottom":false,"doorRight":0,"right":false,"left":false,"doorLeft":0,"exit":false,"doorTop":0,"index":89,"doorBottom":0,"itemParameters":null},{"x":0,"depth":-1,"y":9,"item":-1,"top":false,"bottom":false,"doorRight":0,"right":false,"left":false,"doorLeft":0,"exit":false,"doorTop":0,"index":90,"doorBottom":0,"itemParameters":null},{"x":1,"depth":-1,"y":9,"item":-1,"top":false,"bottom":false,"doorRight":0,"right":false,"left":false,"doorLeft":0,"exit":false,"doorTop":0,"index":91,"doorBottom":0,"itemParameters":null},{"x":2,"depth":-1,"y":9,"item":-1,"top":false,"bottom":false,"doorRight":0,"right":false,"left":false,"doorLeft":0,"exit":false,"doorTop":0,"index":92,"doorBottom":0,"itemParameters":null},{"x":3,"depth":-1,"y":9,"item":-1,"top":false,"bottom":false,"doorRight":0,"right":false,"left":false,"doorLeft":0,"exit":false,"doorTop":0,"index":93,"doorBottom":0,"itemParameters":null},{"x":4,"depth":-1,"y":9,"item":-1,"top":false,"bottom":false,"doorRight":0,"right":false,"left":false,"doorLeft":0,"exit":false,"doorTop":0,"index":94,"doorBottom":0,"itemParameters":null},{"x":5,"depth":-1,"y":9,"item":-1,"top":false,"bottom":false,"doorRight":0,"right":false,"left":false,"doorLeft":0,"exit":false,"doorTop":0,"index":95,"doorBottom":0,"itemParameters":null},{"x":6,"depth":-1,"y":9,"item":-1,"top":false,"bottom":false,"doorRight":0,"right":false,"left":false,"doorLeft":0,"exit":false,"doorTop":0,"index":96,"doorBottom":0,"itemParameters":null},{"x":7,"depth":-1,"y":9,"item":-1,"top":false,"bottom":false,"doorRight":0,"right":false,"left":false,"doorLeft":0,"exit":false,"doorTop":0,"index":97,"doorBottom":0,"itemParameters":null},{"x":8,"depth":-1,"y":9,"item":-1,"top":false,"bottom":false,"doorRight":0,"right":false,"left":false,"doorLeft":0,"exit":false,"doorTop":0,"index":98,"doorBottom":0,"itemParameters":null},{"x":9,"depth":-1,"y":9,"item":-1,"top":false,"bottom":false,"doorRight":0,"right":false,"left":false,"doorLeft":0,"exit":false,"doorTop":0,"index":99,"doorBottom":0,"itemParameters":null}]}